<?xml version="1.0" standalone="no"?>
<!DOCTYPE svg PUBLIC "-//W3C//DTD SVG 20010904//EN"
 "http://www.w3.org/TR/2001/REC-SVG-20010904/DTD/svg10.dtd">
<svg version="1.0" xmlns="http://www.w3.org/2000/svg"
 width="700.000000pt" height="700.000000pt" viewBox="0 0 700.000000 700.000000"
 preserveAspectRatio="xMidYMid meet">
<metadata>
Created by potrace 1.11, written by Peter Selinger 2001-2013
</metadata>
<g transform="translate(0.000000,700.000000) scale(0.100000,-0.100000)"
fill="#000000" stroke="none">
<path d="M1170 6990 c-97 -17 -117 -21 -174 -36 -232 -60 -438 -182 -618 -367
-172 -177 -281 -377 -346 -637 l-27 -105 -2 -2310 c-2 -2366 -2 -2326 32
-2500 10 -51 65 -207 93 -265 155 -323 423 -566 764 -691 85 -31 91 -33 228
-59 90 -17 210 -18 2405 -16 1271 1 2321 5 2335 9 14 4 43 10 65 13 86 13 363
118 410 155 5 5 44 31 85 58 88 58 227 189 298 281 115 150 192 306 238 485
43 165 43 120 43 2500 0 1249 -4 2290 -9 2315 -4 25 -11 67 -14 93 -8 59 -64
232 -102 312 -148 316 -418 565 -749 690 -98 36 -127 44 -236 64 -101 19 -180
19 -2389 19 -1257 0 -2305 -4 -2330 -8z"/>
</g>
</svg>
